…
    ## [1] 7

### Exercise 3

The three most popular pet names are Lucy, with a frequency of 439;
Charlie, with 387; and Luna, with 355. Additionally, there are 483 pet
names listed as unknown, represented as NA.

``` r
seattlepets %>%
  count(animal_name, sort = TRUE)
```

    ## # A tibble: 13,930 × 2
    ##    animal_name     n
    ##    <chr>       <int>
    ##  1 <NA>          483
    ##  2 Lucy          439
    ##  3 Charlie       387
    ##  4 Luna          355
    ##  5 Bella         331
    ##  6 Max           270
    ##  7 Daisy         261
    ##  8 Molly         240
    ##  9 Jack          232
    ## 10 Lily          232
    ## # ℹ 13,920 more rows
…
