…
``` r
#Show sample data with selected columns
lego_sales %>% 
  select(first_name, last_name, age, age_group)
```

    ## # A tibble: 620 × 4
    ##    first_name last_name        age age_group
    ##    <chr>      <chr>          <dbl> <chr>    
    ##  1 Kimberly   Beckstead         24 19 - 25  
    ##  2 Neel       Garvin            35 26 - 35  
    ##  3 Neel       Garvin            35 26 - 35  
    ##  4 Chelsea    Bouchard          41 36 - 50  
    ##  5 Chelsea    Bouchard          41 36 - 50  
    ##  6 Chelsea    Bouchard          41 36 - 50  
    ##  7 Bryanna    Welsh             19 19 - 25  
    ##  8 Bryanna    Welsh             19 19 - 25  
    ##  9 Caleb      Garcia-Wideman    37 36 - 50  
    ## 10 Caleb      Garcia-Wideman    37 36 - 50  
    ## # ℹ 610 more rows
…
