…
``` r
sotu_top_words <- sotu_corpus %>%
  count(lemmata, sort = TRUE) %>%
  slice_max(n, n = 100)

sotu_top_words
```

    ## # A tibble: 1,093 × 2
    ##    lemmata     n
    ##    <chr>   <int>
    ##  1 be          9
    ##  2 light       7
    ##  3 base        6
    ##  4 bear        6
    ##  5 benefit     6
    ##  6 close       6
    ##  7 counsel     6
    ##  8 focus       6
    ##  9 free        6
    ## 10 have        6
    ## # ℹ 1,083 more rows
…
