…
``` r
sotu_corpus <- sotu_corpus %>%
  mutate(lemmata = lemmatize_words(word))

sotu_corpus
```

    ## # A tibble: 29,875 × 3
    ##    word           n lemmata   
    ##    <chr>      <int> <chr>     
    ##  1 government  7597 government
    ##  2 congress    5808 congress  
    ##  3 united      5156 unite     
    ##  4 people      4298 people    
    ##  5 country     3641 country   
    ##  6 public      3419 public    
    ##  7 time        3188 time      
    ##  8 american    2988 american  
    ##  9 war         2976 war       
    ## 10 world       2633 world     
    ## # ℹ 29,865 more rows

``` r
sotu_top_words <- sotu_corpus %>%
  count(lemmata, sort = TRUE) %>%
  slice_head(n = 100)

sotu_top_words
```

    ## # A tibble: 100 × 2
    ##    lemmata     n
    ##    <chr>   <int>
    ##  1 light       7
    ##  2 base        6
    ##  3 bear        6
    ##  4 benefit     6
    ##  5 close       6
    ##  6 counsel     6
    ##  7 focus       6
    ##  8 free        6
    ##  9 marshal     6
    ## 10 narrow      6
    ## # ℹ 90 more rows
…
